…
    h1_data <- read_table(house1_file, col_names = F) %>%
        rename(timestamp = X1, power = X2) %>%
        mutate(timestamp = as.POSIXct(timestamp, origin = "1970/01/01"),
               weekday = weekdays(timestamp),
               time = format(timestamp, "%H:%M:%S"))

    ## Parsed with column specification:
    ## cols(
    ##   X1 = col_integer(),
    ##   X2 = col_integer()
    ## )

    h1_data %>% print

    ## # A tibble: 10,239,433 x 4
    ##              timestamp power weekday     time
    ##                 <dttm> <int>   <chr>    <chr>
    ##  1 2012-11-09 22:28:15   599  Friday 22:28:15
    ##  2 2012-11-09 22:28:21   582  Friday 22:28:21
    ##  3 2012-11-09 22:28:27   600  Friday 22:28:27
    ##  4 2012-11-09 22:28:33   586  Friday 22:28:33
    ##  5 2012-11-09 22:28:40   596  Friday 22:28:40
    ##  6 2012-11-09 22:28:52   581  Friday 22:28:52
    ##  7 2012-11-09 22:28:58   597  Friday 22:28:58
    ##  8 2012-11-09 22:29:04   592  Friday 22:29:04
    ##  9 2012-11-09 22:29:10   587  Friday 22:29:10
    ## 10 2012-11-09 22:29:16   574  Friday 22:29:16
    ## # ... with 10,239,423 more rows
…
